@startuml

!include ../../style/style.iuml
package com.games.aurora.aurorasvc.componentattribute {

   enum CommandType
      {
          -- properties --
          Invalid = 0,
          Crewed,
          Flag,
          -- method --
      }
 }
@enduml
