@startuml

!include ../../style/style.iuml
package com.games.aurora.aurorasvc.componentattribute {

  class FailureRateMitigationAtb <<BaseDataBlob>>{
    -- properties --
    - id: UUID
    - failureRateMitigation: int
    -- method --
  }
}

@enduml
