@startuml

!include ../../style/style.iuml
package com.games.aurora.aurorasvc.componentattribute {

  class JumpPointStabilizationAtb <<BaseDataBlob>>{
    -- properties --
    - id: UUID
    /// Number of days to stabilize a jump point
    - stabilizationTime: int
    -- method --
  }
}
@enduml
