@startuml

!include ../../style/style.iuml
package com.games.aurora.aurorasvc.componentattribute {

  class JumpDriveAtb <<BaseDataBlob>>{
    -- properties --
    - id: UUID
    - maxShipSize: int
    - maxSquadronSize: int
    /// Max distance from JP when arriving. Measured in KM
    - maxDisplacement: int
    -- method --
  }
}
@enduml
