@startuml

!include ../../style/style.iuml
package com.games.aurora.aurorasvc.componentattribute {

  class PopulationSupportAtb <<BaseDataBlob, IComponentDesignAttribute>>{
    -- properties --
    - id: UUID
    // Population capacity at 1.0 colony cost
    // Infrastructure = 10000
    - populationCapacity: int
    -- method --
  }
}

@enduml
