@startuml

!include ../../style/style.iuml
package com.games.aurora.aurorasvc.componentattribute {

  class DB <<BaseDataBlob>>{
    -- properties --
    -- method --
    + DB()
    + DB(DB db)
    + clone()
  }
}
@enduml
