@startuml

!include ../../style/style.iuml
package com.games.aurora.aurorasvc.newtonion {

  class NewtonThrustAbility <<BaseDataBlob>>
      {
        -- properties --
       - id: UUID
       - specificImpulseASL: double => 0//maybe future do stuff with planet to space efficencies.
       /// in m/s
       - exhaustVelocity: double => 0
       /// this is a specific mineral/refined materal etc, rather than a cargo type
       - fuelType: FuelType //todo: change this to a list and enable multple fuel types.
       /// in kg/s (mass)
       - fuelBurnRate: double => 0

       - thrustInNewtons: double => 0
       - totalFuel_kg: double
       /// non fuel mass. will need updating when non fuel cargo is added/removed.
       /// (should be the mass of the ship plus any cargo including fuel not usable by this ship).
       - dryMass_kg: double
       - deltaV: double
       -- method --
      }
}

@enduml
/// <summary>
        /// removes fuel and correct amount of DV.
        /// </summary>
        /// <param name="fuel">in kg</param>
        internal void BurnFuel(double fuel)
        {
            TotalFuel_kg -= fuel;
            DeltaV = OrbitMath.TsiolkovskyRocketEquation(TotalFuel_kg, DryMass_kg, ExhaustVelocity);
        }

        /// <summary>
        /// removes deltaV and correct amount of fuel.
        /// </summary>
        /// <param name="dv"></param>
        internal void BurnDeltaV(double dv)
        {
            DeltaV -= dv;
            TotalFuel_kg -= OrbitMath.TsiolkovskyFuelUse(DryMass_kg + TotalFuel_kg, ExhaustVelocity, dv);
        }

        /// <summary>
        /// Adds fuel, and updates DeltaV.
        /// </summary>
        /// <param name="fuel"></param>
        internal void AddFuel(double fuel)
        {
            TotalFuel_kg += fuel;
            DeltaV = OrbitMath.TsiolkovskyRocketEquation(DryMass_kg + TotalFuel_kg, DryMass_kg, ExhaustVelocity);
        }

        /// <summary>
        /// Sets a given amount of fuel, and updates DeltaV.
        /// </summary>
        /// <param name="fuel"></param>
        internal void SetFuel(double fuel)
        {
            TotalFuel_kg = fuel;
            DeltaV = OrbitMath.TsiolkovskyRocketEquation(DryMass_kg + TotalFuel_kg, DryMass_kg, ExhaustVelocity);
        }
