@startuml


!include ../../style/style.iuml
package com.games.aurora.aurorasvc.construction {

  enum ConstructionType {
    -- properties --
     NONE            = 1 << 1,
     INSTALLATION   = 1 << 2,
     SHIP_COMPONENTS  = 1 << 3,
     FIGHTERS        = 1 << 4,
     ORDNANCE        = 1 << 5,
  }

  class ConstructionType {
    -- properties --
    - id: byte
    - name: string
    -- method--
  }
}

@enduml
