@startuml

!include ../../style/style.iuml
package com.games.aurora.aurorasvc.construction {

  enum ConstructableHints {
    -- properties --
     None
     CanBeLaunched
     CanBeInstalled
     IsOrdinance
  }

  class ConstructableHints {
    -- properties --
    - id: UUID
    - name: string
    -- method--
  }
}
@enduml
