@startuml

!include ../../style/style.iuml
package com.games.aurora.aurorasvc.sensor {

  class SensorReceiverAbility <<ComponentAbilityState>>
      {
        -- properties --
        - id: UUID
        - currentContacts: Dictionary<Guid, SensorProcessorTools.SensorReturnValues>
        - oldContacts: Dictionary<Guid, SensorProcessorTools.SensorReturnValues>
        -- method --
      }
}


@enduml
