@startuml


!include ../../style/style.iuml
package com.games.aurora.aurora-value-objects {

  abstract class JobBase {
    -- properties --
    - id: UUID
    - name: String
    - item: Item
    - numberOrdered: short
    - numberCompleted: short
    - productionPointsLeft: int
    - productionPointsCost: int
    - auto: boolean
    - resourcesRequired: Dictionary<Resource, int>
    -- method--
    + initialiseJob(short numberOrdered, boolean auto): void
  }
}

@enduml
