@startuml
!include ../../style/style.iuml
package com.games.aurora.aurorasvc.missiles {

  enum GuidanceType
      {
          Dumbfire,
          Parent,
          Passive,
          Active
      }
}
@enduml
 interface IGuidenceType
    {
        GuidanceTypes GetGuidenceType { get; }
    }

    struct DumbfireGuidence : IGuidenceType
    {
        public GuidanceTypes GetGuidenceType => GuidanceTypes.Dumbfire;
        //public double TriggerAfterSeconds;
    }
    struct ParentGuidence : IGuidenceType
    {
        public GuidanceTypes GetGuidenceType => GuidanceTypes.Parent;
    }
    struct PassiveGuidence : IGuidenceType
    {
        public GuidanceTypes GetGuidenceType => GuidanceTypes.Passive;
    }
    struct ActiveGuidence : IGuidenceType
    {
        public GuidanceTypes GetGuidenceType => GuidanceTypes.Active;
    }
