@startuml

!include ../../style/style.iuml
package com.games.aurora.aurorasvc.missiles {

  class OrbitUpdateOftenProcessor {
    -- properties --
    -- method--
  }
}
@enduml
{
        private static readonly int OrbitTypeIndex = EntityManager.GetTypeIndex<OrbitUpdateOftenDB>();
        private static readonly int PositionTypeIndex = EntityManager.GetTypeIndex<PositionDB>();

        public TimeSpan RunFrequency => TimeSpan.FromSeconds(1);

        public TimeSpan FirstRunOffset => TimeSpan.FromTicks(0);

        public Type GetParameterType => typeof(OrbitUpdateOftenDB);


        public void Init(Game game)
        {
            //nothing needed to do in this one. still need this function since it's required in the interface.
        }

        public void ProcessEntity(Entity entity, int deltaSeconds)
        {
            var orbit = entity.GetDataBlob<OrbitUpdateOftenDB>(OrbitTypeIndex);
            DateTime toDate = entity.StarSysDateTime + TimeSpan.FromSeconds(deltaSeconds);
            UpdateOrbit(orbit, toDate);
        }

        public void ProcessManager(EntityManager manager, int deltaSeconds)
        {
            var orbits = manager.GetAllDataBlobsOfType<OrbitUpdateOftenDB>(OrbitTypeIndex);
            DateTime toDate = manager.ManagerSubpulses.StarSysDateTime + TimeSpan.FromSeconds(deltaSeconds);
            foreach (var orbit in orbits)
            {
                UpdateOrbit(orbit, toDate);
            }
        }

        public static void UpdateOrbit(OrbitUpdateOftenDB entityOrbitDB, DateTime toDate)
        {

            PositionDB entityPosition = entityOrbitDB.OwningEntity.GetDataBlob<PositionDB>(PositionTypeIndex);
            try
            {
                Vector3 newPosition = OrbitProcessor.GetPosition_m(entityOrbitDB, toDate);
                entityPosition.RelativePosition_m = newPosition;
            }
            catch (OrbitProcessor.OrbitProcessorException e)
            {
                var entity = e.Entity;
                string name = "Un-Named";
                if (entity.HasDataBlob<NameDB>())
                    name = entity.GetDataBlob<NameDB>().OwnersName;
                //Do NOT fail to the UI. There is NO data-corruption on this exception.
                // In this event, we did NOT update our position.
                Event evt = new Event(StaticRefLib.CurrentDateTime, "Non Critical Position Exception thrown in OrbitProcessor for EntityItem " + name + " " + entity.Guid + " " + e.Message);
                evt.EventType = EventType.Opps;
                StaticRefLib.EventLog.AddEvent(evt);
            }
        }
    }
