@startuml

!include ../../style/style.iuml
package com.games.aurora.aurorasvc.species {

  class Species <<BaseDataBlob>>
      {
        -- properties --
        /// SpeciesDB defines an entity as being a Species.
        - id: UUID
        /// The ideal gravity for this species.
        - baseGravity: double
        /// The minimum gravity the species can tolerate
        - minimumGravityConstraint: double
        /// The maximum gravity the species can tolerate
        - maximumGravityConstraint: double
        /// The ideal atmospheric pressure for the species
        - basePressure: double
        /// The minimum atmospheric pressure the species can tolerate
        - minimumPressureConstraint: double
        /// The maximum atmospheric pressure the species can tolerate
        - maximumPressureConstraint: double
        /// The ideal temperature for the species
        - baseTemperature: double
        /// The minimum temperature the species can tolerate
        - minimumTemperatureConstraint: double
        /// The maximum temperature the species can tolerate
        - maximumTemperatureConstraint: double
        /// Range of temperatures this species can withstand?
        /// TODO: Gameplay Review
        /// We should either have BaseTemperature + ToleranceRange, or Min/Max temps, but not both.
        /// Min/Max works best with aurora mechanics.
        - temperatureToleranceRange: double

        -- method --
      }
}

@enduml
