@startuml

!include ../../style/style.iuml
package com.games.aurora.aurorasvc.damage {

  class DamageTools {
    -- properties --
    - damageResistsLookupTable: Dictionary<byte, DamageResist>
    - bitmap: Bitmap
    - mass: float
    - density: float
    - length: float

    -- method --
    + loadFromBitMap(string file): RawBmp
    + fomByte(byte byteColor): Color
    + fromColor(Color color): DamageResist
    + createComponentByteArray(ComponentDesign componentDesign, byte typeID): RawBmp
    + dealDamage(EntityDamageProfileDB damageProfile, DamageFragment damage): List<RawBmp>
  }
}

@enduml