@startuml

!include Bitmap.puml
!include Connections.puml
!include DamageControlAtb.puml
!include DamageFragment.puml
!include DamageProfile.puml
!include DamageResist.puml
!include DamageTools.puml
!include RawBmp.puml

@enduml
