@startuml

!include ../../style/style.iuml
package com.games.aurora.aurorasvc.team {

  class TeamObject <<Cargoable>> {
    -- properties --
    - teamType: TeamType
    - leaderName: string
    - age: int
    /// Determines how many Labs this team can manage
    - teamSize: int
    /// not sure if this should be a blob, entity or guid. and maybe a queue as well.
    /// TODO: Communications Review
    /// Detemine team orders system
    - teamTask: TeamTask

    - teamId: UUID
    - name: string
    - cargoType: CargoType => "7e08074d-682c-4452-a45a-dc97968f53ca"
    - massPerUnit: int
    - volumePerUnit: double
    - density: double
    -- method --
  }
}


@enduml