@startuml

!include ../../style/style.iuml
package com.games.aurora.aurorasvc.ship {

  class MissileWeapons <<BaseDataBlob>>{
    -- properties --
    /// Contains info on the Ships missile weapons, including Fire control and Magazine storage.
    - id: UUID
    - maximumMagazineCapacity: int // in MSP
    - usedMagazineCapacity: int
    -- method--
  }
}
@enduml
