@startuml

!include ../../style/style.iuml
package com.games.aurora.aurorasvc.firecontrol {

  interface FireWeaponInstr {
    -- properties --
    -- method--
    + canLoadOrdnance(OrdnanceDesign ordnanceDesign): boolean
    + assignOrdnance(OrdnanceDesign ordnanceDesign): boolean
    + tryGetOrdnance(out OrdnanceDesign ordnanceDesign): boolean
    + fireWeapon(Entity launchingEntity, Entity tgtEntity, int count): void
  }
}

@enduml