@startuml
!include ../style/style.iuml
entity ASSIGNMENT_TYPE_FILTER
{
    primary_key(ASSIGNMENT_TYPE_ID: NUMBER)
    ACADEMY: NUMBER
    ARMED: NUMBER
    DESCRIPTION: VARCHAR2(250)
    DISPLAY_ORDER: NUMBER
    FIGHTER: NUMBER
    FREIGHTERS: NUMBER
    GROUND: NUMBER
    LEADER_TYPE: NUMBER
    NAVAL_ADMIN: NUMBER
    POPULATION: NUMBER
    RANK_PRIORITY_MODIFIER: NUMBER
    SECTOR: NUMBER
    SHIP: NUMBER
    SHIP_COMMAND_TYPE: NUMBER
    SURVEY: NUMBER
    TEAM: NUMBER
}

@enduml
