@startuml
!include ../style/style.iuml
entity DESIGN_THEME
{
    primary_key(DESIGN_THEME_ID: NUMBER)
    ARMOUR_MULTIPLIER: NUMBER
    COLONY_DENSITY_BASE: NUMBER
    COLONY_DENSITY_RANGE: NUMBER
    DEPLOYMENT_STRATEGY: NUMBER
    DESCRIPTION: VARCHAR2(250)
    ENGINE_PROPORTION_BASE: NUMBER
    ENGINE_PROPORTION_RANGE: NUMBER
    FIGHTER_FACTORIES: BOOLEAN
    foreign_key(GROUND_FORCE_DEPLOYMENT_THEME_ID: NUMBER)
    GROUND_TEMPLATE_DISTRIBUTION: NUMBER
    MAX_DIPLOMATIC : NUMBER
    MAX_GEO: NUMBER
    MAX_GRAV: NUMBER
    MAX_SALVAGE: NUMBER
    MAX_SCOUT: NUMBER
    MAX_STABILISATION: NUMBER
    MAX_TANKER: NUMBER
    MISSILE_FAC: BOOLEAN
    MISSILE_MINE: BOOLEAN
    MISSILE_PD: BOOLEAN
    MISSILE_SIZE_BASE: NUMBER
    MISSILE_SIZE_RANGE: NUMBER
    MISSILE_STANDARD: BOOLEAN
    NAME: VARCHAR2(250)
    NUM_ENGINES_SMALL: VARCHAR2(250)
    OP_GROUP_PROGRESSION_TYPE : NUMBER
    ORDNANCE_FACTORIES: BOOLEAN
    PLAYER_ELIGIBLE: NUMBER
    POINT_DEFENCE_WEAPON: NUMBER
    PRIMARY_BEAM_WEAPON: NUMBER
    RANDOM_WEIGHT: NUMBER
    SECONDARY_BEAM_WEAPON: NUMBER
    SHIELD_PROPORTION_BASE: NUMBER
    SHIELD_PROPORTION_RANGE: NUMBER
    SHIPPING_LINES: BOOLEAN
    SPECIAL_MODIFICATIONS: NUMBER
    SPECIAL_N_P_R_I_D : NUMBER
    STARTING_TECH_POINT_MODIFIER: NUMBER
    TECH_PROGRESSION_TYPE: NUMBER
    WARSHIP_HULL_BASE: NUMBER
    WARSHIP_HULL_RANGE: NUMBER
}


@enduml
