@startuml

!include ../../style/style.iuml
package com.games.aurora.aurorasvc.componentdesign {

  class ComponentInstances <<BaseDataBlob>>{
    -- properties --
    - id: UUID
    - allDesigns: Dictionary<ComponentInstance, ComponentDesign>
    - designsAndComponentCount: Dictionary<ComponentDesign, int>
    - designsByAtbType: Dictionary<Type, List<ComponentDesign>>
    - componentsByDesign: Dictionary<ComponentDesign, List<ComponentInstance>>
    - componentsByAttribute: Dictionary<Type, List<ComponentInstance>>
    - allComponents: List<ComponentInstance>
    -- method --
    + getNumberOfComponentsOfDesign(Design design)
  }

}


@enduml
