@startuml

!include ../../style/style.iuml
package com.games.aurora.aurorasvc.componentdesign {

  class ComponentAbilityState {
    -- properties --
    - id: UUID
    - name: string
    - componentInstance: ComponentInstance
    - parentState: ComponentAbilityState
    - childrenStates: List<ComponentAbilityState> => newArrayList()
    -- method --
    + ComponentDesigner(ComponentTemplate component, FactionTech factionTech)
  }

  ComponentAbilityState --> ComponentAbilityState

}
@enduml