@startuml

!include ../../style/style.iuml
package com.games.aurora.aurorasvc.componentdesign {

  class EntityManipulation {
    -- properties --
    - reCalcProcessor: ReCalcProcessor
    -- method --
    + addComponentToEntity(ComponentInstances parentEntity, ComponentInstance componentInstace): void
    + addComponentToEntity(ComponentInstances parentEntity, List<ComponentDesign> componentDesign): void
    + addComponentToEntity(ComponentInstances parentEntity, ComponentDesign componentDesign, int count = 1): void
    + addComponentToEntity(ComponentInstances parentEntity, List<ComponentInstance> instances): void
    + addComponentInstanceToEntity(ComponentInstances parentEntity, ComponentInstance componentInstance): void
  }
}

@enduml

{


        internal static void AddComponentToEntity(Entity parentEntity, ComponentInstance componentInstace)
        {
            AddComponentInstanceToEntity(parentEntity, componentInstace);
            ReCalcProcessor.ReCalcAbilities(parentEntity);
        }

        internal static void AddComponentToEntity(Entity parentEntity, List<ComponentDesign> componentDesign)
        {
            if (parentEntity.HasDataBlob<ComponentInstancesDB>())
            {
                foreach (var cd in componentDesign)
                {
                    ComponentInstance instance = new ComponentInstance(cd);
                    AddComponentInstanceToEntity(parentEntity, instance);
                }
                ReCalcProcessor.ReCalcAbilities(parentEntity);
            }
            else throw new Exception("parentEntiy does not contain a ComponentInstanceDB");
        }

        internal static void AddComponentToEntity(Entity parentEntity, ComponentDesign componentDesign, int count = 1)
        {
            ComponentInstance instance;

            if (parentEntity.HasDataBlob<ComponentInstancesDB>())
            {
                for (int i = 0; i < count; i++)
                {
                    instance = new ComponentInstance(componentDesign);
                    AddComponentInstanceToEntity(parentEntity, instance);
                }
            }
            else throw new Exception("parentEntiy does not contain a ComponentInstanceDB");

            ReCalcProcessor.ReCalcAbilities(parentEntity);
        }

        internal static void AddComponentToEntity(Entity parentEntity, List<ComponentInstance> instances)
        {
            foreach (var instance in instances)
                AddComponentToEntity(parentEntity, instance);

            ReCalcProcessor.ReCalcAbilities(parentEntity);
        }

        private static void AddComponentInstanceToEntity(Entity parentEntity, ComponentInstance componentInstance)
        {
            componentInstance.ParentEntity = parentEntity;
            ComponentInstancesDB instancesDict = parentEntity.GetDataBlob<ComponentInstancesDB>();

            instancesDict.AddComponentInstance(componentInstance);
            foreach (var atbkvp in componentInstance.Design.AttributesByType)
            {
                atbkvp.Value.OnComponentInstallation(parentEntity, componentInstance);
            }
        }

    }
