@startuml

!include ../../style/style.iuml
package com.games.aurora.aurorasvc.industry {

  class IndustryAtb <<ComponentDesignAttribute>> {
    -- properties --
    - id: UUID
    - industryPoints: Dictionary<Industry, int>
    - maxProductionVolume: double
    -- method--
    + onComponentInstallation(IndustryAbility industryAbility, ComponentInstance componentInstance): void
  }
}

@enduml