@startuml

!include ../../style/style.iuml
package com.games.aurora.aurorasvc.installation {

  class ConstructJob {
    -- properties --
    - id: UUID
    - itemsRemaining: float
    - priorityPercent: PercentValue
    - rawMaterialsRemaining: Material => Dictionary<ID, int>
    - buildPointsRemaining: int
    - buildPointsPerItem: int
    -- method--
  }
}

@enduml
    //public struct ConstructJob
    //{
    //    public ID Type;
    //    public float ItemsRemaining;
    //    public PercentValue PriorityPercent;
    //    public Dictionary<ID, int> RawMaterialsRemaining;
    //    public int BuildPointsRemaining;
    //    public int BuildPointsPerItem;
    //}
