@startuml

!include ../../style/style.iuml
package com.games.aurora.aurorasvc.installation {

  class InstallationEmployment {
    -- properties --
    /// this is used to turn installations on and off,
    /// and also used by the Processor to check pop requirements.
    - id: UUID
    - enabled: boolean
    -- method--
  }
}

@enduml
