@startuml

!include ../../style/style.iuml
package com.games.aurora.aurorasvc.cargo {

  class CargoType {
    -- properties --
    - id: UUID
    - name: string
    - description: string
  }
}
@enduml
