@startuml

!include ../../style/style.iuml
package com.games.aurora.aurorasvc.cargo {

  class CargoStorageAtb {
    -- properties --
    - id: UUID
    - storageCapacity: int
    - cargoType: CargoType
    - transferRate: int
    - transferRange: double
    -- method --
  }

}
@enduml