@startuml

!include ../../style/style.iuml
package com.games.aurora.aurorasvc.cargo {

  class CargoTransfer <<BaseDataBlob>> {
    -- properties --
    - id: UUID
    - cargoFrom: Cargo
    - volumeFrom: VolumeStorage
    - cargoTo: Cargo
    - volumeTo: VolumeStorage
    - orderedToTransfer: Map<Cargoable, int>
    - itemsLeftToTransfer: Map<Cargoable, int>
    - distanceBetweenObjects: double
    - transferRateInKG: int => 1000
    -- method --
    /// Threadsafe gets items left to transfer. don't call this every ui frame!
    /// (or you could cause deadlock slowdowns with the processing)
    + getItemsToTransfer(): List<(Cargoable item, int unitCount)>
  }

}
@enduml
