@startuml

!include ../../style/style.iuml
package com.games.aurora.aurorasvc.energy {

  class EnergyStore <<IComponentDesignAttribute>> {
    -- properties --
    - id: UUID
    - energyTyp: EnergyTyp
    - maxStore: double
    -- method--
    + onComponentInstallation(EnergyGenAbility energyGenAbility, ComponentInstance componentInstance)
  }
}
@enduml