@startuml

!include ../../style/style.iuml
package com.games.aurora.aurorasvc.energy {

  class EnergyGenAbility {
    -- properties --
    - id: UUID
    - dateTimeLastProcess: DateTime
    - energyType: EnergyType // Cargoable
    - totalOutputMax: double => 0
    - totalFuelUseAtMax: Map<EnergyType, double>
    - demand: double
    - load: double
    - output: double
    - energyStored: Map<EnergyType, double>
    - energyStoreMax: Map<EnergyType, double>
    - localFuel: double
    - histogramSize: int
    - histogramIndex: int => 0
    - histogramStartDate: DateTime
    - histogram: List<(double outputval, double demandval, double storval, int seconds)> //see for object
    -- method--
  }
}

@enduml